module test-project

go 1.21.6

require (
	github.com/bytedance/sonic v1.10.1 // indirect
	github.com/chenzhuoyu/base64x v0.0.0-20230717121745-296ad89f973d // indirect
	github.com/chenzhuoyu/iasm v0.9.0 // indirect
	github.com/fatih/color v1.16.0 // indirect
	github.com/gabriel-vasile/mimetype v1.4.2 // indirect
	github.com/gin-contrib/cors v1.5.0 // indirect
	github.com/gin-contrib/sse v0.1.0 // indirect
	github.com/gin-gonic/gin v1.9.1 // indirect
	github.com/go-playground/locales v0.14.1 // indirect
	github.com/go-playground/universal-translator v0.18.1 // indirect
	github.com/go-playground/validator/v10 v10.15.5 // indirect
	github.com/goccy/go-json v0.10.2 // indirect
	github.com/google/uuid v1.6.0 // indirect
	github.com/jinzhu/inflection v1.0.0 // indirect
	github.com/joho/godotenv v1.5.1 // indirect
	github.com/json-iterator/go v1.1.12 // indirect
	github.com/klauspost/cpuid/v2 v2.2.5 // indirect
	github.com/leodido/go-urn v1.2.4 // indirect
	github.com/mattn/go-colorable v0.1.13 // indirect
	github.com/mattn/go-isatty v0.0.20 // indirect
	github.com/modern-go/concurrent v0.0.0-20180306012644-bacd9c7ef1dd // indirect
	github.com/modern-go/reflect2 v1.0.2 // indirect
	github.com/pelletier/go-toml/v2 v2.1.0 // indirect
	github.com/tmthrgd/go-hex v0.0.0-20190904060850-447a3041c3bc // indirect
	github.com/twitchyliquid64/golang-asm v0.15.1 // indirect
	github.com/ugorji/go/codec v1.2.11 // indirect
	github.com/uptrace/bun v1.1.17 // indirect
	github.com/uptrace/bun/dialect/pgdialect v1.1.17 // indirect
	github.com/uptrace/bun/driver/pgdriver v1.1.17 // indirect
	github.com/uptrace/bun/extra/bundebug v1.1.17 // indirect
	github.com/vmihailenco/msgpack/v5 v5.4.1 // indirect
	github.com/vmihailenco/tagparser/v2 v2.0.0 // indirect
	golang.org/x/arch v0.5.0 // indirect
	golang.org/x/crypto v0.18.0 // indirect
	golang.org/x/net v0.16.0 // indirect
	golang.org/x/sys v0.16.0 // indirect
	golang.org/x/text v0.14.0 // indirect
	google.golang.org/protobuf v1.31.0 // indirect
	gopkg.in/yaml.v3 v3.0.1 // indirect
	mellium.im/sasl v0.3.1 // indirect
)
